…
#> 3 1-Methyladenine        0.0555 0.404 birth_type
#> 4 1-Methylguanine        0.266  0.596 birth_type
#> 5 1-Vinylimidazole       0.64   0.807 birth_type
#> 
#> $mean.feat
#>                 features    mean.feat
#> 1 1,5-Naphthalenediamine 0.0001591865
#> 2  1,7-Dimethyluric acid 0.0002805524
#> 3        1-Methyladenine 0.0001991781
#> 4        1-Methylguanine 0.0003367005
#> 5       1-Vinylimidazole 0.0001454276
#> 
#> $all
#> $all$birth_type
#> # A tibble: 213 × 5
#>    features                        var.tot mean.feat  var.grp var.exp
#>    <chr>                             <dbl>     <dbl>    <dbl>   <dbl>
#>  1 1,5-Naphthalenediamine         1.37e- 8 0.000159  1.27e- 8  0.0768
#>  2 1,7-Dimethyluric acid          8.55e- 8 0.000281  8.44e- 8  0.0130
#>  3 1-Methyladenine                4.40e- 8 0.000199  4.27e- 8  0.0313
#>  4 1-Methylguanine                3.45e- 7 0.000337  3.37e- 7  0.0238
#>  5 1-Vinylimidazole               3.94e- 7 0.000145  3.88e- 7  0.0158
#>  6 17α-Hydroxyprogesterone        6.76e- 8 0.000156  6.64e- 8  0.0169
#>  7 1H-indene-3-carboxamide        8.47e-10 0.0000441 8.12e-10  0.0411
#>  8 2,3-pyridinecarboxylic acid    1.25e- 7 0.000426  1.23e- 7  0.0125
#>  9 2-(hydroxymethyl)butanoic acid 2.06e- 6 0.000646  2.02e- 6  0.0150
#> 10 2-Fucosyllactose               1.50e- 5 0.00142   1.43e- 5  0.0482
#> # ℹ 203 more rows
#> 
#> $all$breastfeeding
#> # A tibble: 213 × 5
#>    features                        var.tot mean.feat  var.grp var.exp
#>    <chr>                             <dbl>     <dbl>    <dbl>   <dbl>
#>  1 1,5-Naphthalenediamine         1.37e- 8 0.000159  1.31e- 8  0.0464
#>  2 1,7-Dimethyluric acid          8.55e- 8 0.000281  8.44e- 8  0.0134
#>  3 1-Methyladenine                4.40e- 8 0.000199  4.35e- 8  0.0126
#>  4 1-Methylguanine                3.45e- 7 0.000337  3.40e- 7  0.0154
#>  5 1-Vinylimidazole               3.94e- 7 0.000145  3.89e- 7  0.0117
#>  6 17α-Hydroxyprogesterone        6.76e- 8 0.000156  6.56e- 8  0.0291
#>  7 1H-indene-3-carboxamide        8.47e-10 0.0000441 8.13e-10  0.0404
#>  8 2,3-pyridinecarboxylic acid    1.25e- 7 0.000426  1.23e- 7  0.0108
#>  9 2-(hydroxymethyl)butanoic acid 2.06e- 6 0.000646  2.03e- 6  0.0113
#> 10 2-Fucosyllactose               1.50e- 5 0.00142   1.48e- 5  0.0139
#> # ℹ 203 more rows
#> 
#> $all$sex
#> # A tibble: 213 × 5
#>    features                        var.tot mean.feat  var.grp var.exp
#>    <chr>                             <dbl>     <dbl>    <dbl>   <dbl>
#>  1 1,5-Naphthalenediamine         1.37e- 8 0.000159  1.33e- 8  0.0303
#>  2 1,7-Dimethyluric acid          8.55e- 8 0.000281  8.46e- 8  0.0106
#>  3 1-Methyladenine                4.40e- 8 0.000199  3.92e- 8  0.109 
#>  4 1-Methylguanine                3.45e- 7 0.000337  3.39e- 7  0.0192
#>  5 1-Vinylimidazole               3.94e- 7 0.000145  3.83e- 7  0.0270
#>  6 17α-Hydroxyprogesterone        6.76e- 8 0.000156  6.64e- 8  0.0174
#>  7 1H-indene-3-carboxamide        8.47e-10 0.0000441 8.27e-10  0.0230
#>  8 2,3-pyridinecarboxylic acid    1.25e- 7 0.000426  1.23e- 7  0.0102
#>  9 2-(hydroxymethyl)butanoic acid 2.06e- 6 0.000646  2.01e- 6  0.0224
#> 10 2-Fucosyllactose               1.50e- 5 0.00142   1.48e- 5  0.0172
#> # ℹ 203 more rows
```
…
